; ModuleID = 'teste.cpp'
target datalayout = "e-m:e-i64:64-f80:128-n8:16:32:64-S128"
target triple = "x86_64-pc-linux-gnu"

; Function Attrs: nounwind uwtable
define void @_Z1fid(i32 %a, double %b) #0 {
  %1 = alloca i32, align 4
  %2 = alloca double, align 8
  %x = alloca double, align 8
  store i32 %a, i32* %1, align 4
  store double %b, double* %2, align 8
  %3 = load i32* %1, align 4
  %4 = sitofp i32 %3 to double
  %5 = load double* %2, align 8
  %6 = fadd double %4, %5
  store double %6, double* %x, align 8
  ret void
}

; Function Attrs: nounwind uwtable
define i32 @main() #0 {
  ret i32 0
}

attributes #0 = { nounwind uwtable "less-precise-fpmad"="false" "no-frame-pointer-elim"="true" "no-frame-pointer-elim-non-leaf" "no-infs-fp-math"="false" "no-nans-fp-math"="false" "stack-protector-buffer-size"="8" "unsafe-fp-math"="false" "use-soft-float"="false" }

!llvm.ident = !{!0}

!0 = !{!"Debian clang version 3.6.2-3 (tags/RELEASE_362/final) (based on LLVM 3.6.2)"}
